[
    {
        "id": "1",
        "name": "Airpodes",
        "description": "csdcsdvknsdvsndkvjskvnskdvnkn"
    },
    {
        "id": "60d633e8-32f2-456b-a497-57e872e2d236",
        "title": "test products",
        "description": "This ismy product",
        "price": 100
    },
    {
        "id": "545153e4-e61d-4b95-a44c-33c0118b7186",
        "title": "pranav",
        "description": "kakadiya",
        "price": 100
    },
    {
        "id": "d12818b0-afde-4398-b674-d3382c0976b0",
        "title": "signup",
        "description": "use enter",
        "price": 500
    },
    {
        "id": "3e7ce75d-4c92-422e-956b-600dc02326bc",
        "firstname": "signup",
        "lastname": "use enter",
        "emailId": 500,
        "password": 789456123
    },
    {
        "id": "e0c38141-fa7c-4f2a-8a94-89e4325626bb",
        "firstname": "signup",
        "lastname": "k",
        "emailId": "pranav@gmail.com",
        "password": "kp74"
    },
    {
        "id": "6c6fd05a-cb5f-4f8c-bef0-fa1e0a4f82c3",
        "firstname": "signup",
        "lastname": "k",
        "emailId": "pranav@gmail.com",
        "password": "pranav123"
    },
    {
        "id": "701bd66f-eef3-473e-9b94-5ef911b3b8be",
        "firstname": "abcdedjhvcajhsc",
        "lastname": "kakadiyacbjhbasj",
        "emailId": "henilcja111@gmail.com",
        "password": "henil12#s3"
    },
    {
        "id": "c895c6c1-4f31-489b-a9e0-0cfa25b2f83e",
        "firstname": "emailsdb",
        "lastname": "pranavddddd",
        "emailId": "pranav111@gmail.com",
        "password": "cs893"
    },
    {
        "id": "d3f0bf44-043b-490b-a4a8-267ae5c19767",
        "firstname": "emailsdb",
        "lastname": "pranavddddd",
        "emailId": "pranav111@gmail.com",
        "password": "cs893"
    }
]